%YAML 1.1
%TAG !u! tag:unity3d.com,2011:
--- !u!1045 &1
EditorBuildSettings:
  m_ObjectHideFlags: 0
  serializedVersion: 2
  m_Scenes:
  - enabled: 1
    path: Assets/Scenes/SampleScene.unity
    guid: 9fc0d4010bbf28b4594072e72b8655ab
  - enabled: 1
    path: Assets/Scenes/Scenes1.unity
    guid: 22e1b8aa703db0e47a6e412e0fe25fb8
  - enabled: 1
    path: Assets/Scenes/Scenes2.unity
    guid: 98e676864bd53b740bd3abdd569a163d
  m_configObjects: {}
